id,ancestry,name,latitude,longitude
35,1,Kab. Simeulue,2.6294415,96.1046861
36,1,Kab. Aceh Singkil,2.3737165,97.9269696
37,1,Kab. Aceh Selatan,3.070174,97.4249472
38,1,Kab. Aceh Tenggara,3.3380285,97.617301
39,1,Kab. Aceh Timur,4.7028014,97.6392325
40,1,Kab. Aceh Tengah,4.5625095,96.814866
41,1,Kab. Aceh Barat,4.4513732,96.1858005
42,1,Kab. Aceh Besar,5.404235,95.4254264
43,1,Kab. Pidie,5.1133685,96.0867806
44,1,Kab. Bireuen,5.198732,96.6922044
45,1,Kab. Aceh Utara,4.9936454,97.1506885
46,1,Kab. Aceh Barat Daya,3.8354986,96.8672571
47,1,Kab. Gayo Lues,3.981049,97.323531
48,1,Kab. Aceh Tamiang,4.2184944,98.0014529
49,1,Kab. Nagan Raya,4.1765099,96.5057757
50,1,Kab. Aceh Jaya,4.811146,95.6663485
51,1,Kab. Bener Meriah,4.774794,96.9923934
52,1,Kab. Pidie Jaya,5.1047825,96.195215
53,1,Kota Banda Aceh,5.5611019,95.3287025
54,1,Kota Sabang,5.8785875,95.3329267
55,1,Kota Langsa,4.4823999,97.9622753
56,1,Kota Lhokseumawe,5.17189,97.1076359
57,1,Kota Subulussalam,2.644924,98.015163
58,2,Kab. Nias,1.0843094,97.7250064
59,2,Kab. Mandailing Natal,0.5559349,99.117393
60,2,Kab. Tapanuli Selatan,1.5510685,99.1793125
61,2,Kab. Tapanuli Tengah,1.8693345,98.59616
62,2,Kab. Tapanuli Utara,2.0150509,99.0694535
63,2,Kab. Toba Samosir,2.3855825,99.2483775
64,2,Kab. Labuhan Batu,2.269904,100.0132304
65,2,Kab. Asahan,2.846877,99.5333395
66,2,Kab. Simalungun,2.9559255,99.067711
67,2,Kab. Dairi,2.8353839,98.2547108
68,2,Kab. Karo,3.0998311,98.2716834
69,2,Kab. Deli Serdang,3.4799785,98.707102
70,2,Kab. Langkat,3.7601391,98.2317535
71,2,Kab. Nias Selatan,0.7889945,97.7237156
72,2,Kab. Humbang Hasundutan,2.2478419,98.6071295
73,2,Kab. Pakpak Bharat,2.5305734,98.2685331
74,2,Kab. Samosir,2.5562235,98.6961731
75,2,Kab. Serdang Bedagai,3.3459435,99.0318804
76,2,Kab. Batu Bara,3.2304581,99.4800035
77,2,Kab. Padang Lawas Utara,1.636409,99.8455431
78,2,Kab. Padang Lawas,1.156542,99.8014749
79,2,Kab. Labuhan Batu Selatan,1.833775,100.060497
80,2,Kab. Labuhan Batu Utara,2.425626,99.734229
81,2,Kab. Nias Utara,1.3101674,97.2899217
82,2,Kab. Nias Barat,0.9823165,97.457437
83,2,Kota Sibolga,1.730822,98.7840604
84,2,Kota Tanjung Balai,2.9672575,99.7880078
85,2,Kota Pematang Siantar,2.9641085,99.0608324
86,2,Kota Tebing Tinggi,3.3276017,99.160697
87,2,Kota Medan,3.6422865,98.6694935
88,2,Kota Binjai,3.6223245,98.501204
89,2,Kota Padangsidimpuan,1.3677723,99.2813205
90,2,Kota Gunungsitoli,1.2990104,97.6078931
91,3,Kab. Kepulauan Mentawai,-1.4181185,98.9587929
92,3,Kab. Pesisir Selatan,-1.7177599,100.790496
93,3,Kab. Solok,-0.927534,100.837884
94,3,Kab. Sijunjung,-0.622654,101.0588159
95,3,Kab. Tanah Datar,-0.4698185,100.5827935
96,3,Kab. Padang Pariaman,-0.5660215,100.2099335
97,3,Kab. Agam,-0.2531825,100.1537355
98,3,Kab. Lima Puluh Kota,0.02907,100.5559274
99,3,Kab. Pasaman,-0.15213,100.65877
100,3,Kab. Solok Selatan,-1.3644709,101.2735826
101,3,Kab. Dharmasraya,-1.2506435,101.519325
102,3,Kab. Pasaman Barat,0.1879615,99.6077419
103,3,Kota Padang,-0.9402105,100.3912699
104,3,Kota Solok,-0.7899398,100.6533184
105,3,Kota Sawah Lunto,-0.5935983,100.7371292
106,3,Kota Padang Panjang,-0.4652866,100.39538
107,3,Kota Bukittinggi,-0.3027606,100.3719801
108,3,Kota Payakumbuh,-0.2294954,100.6327529
109,3,Kota Pariaman,-0.609637,100.1362477
110,4,Kab. Kuantan Singingi,-0.4938175,101.4765815
111,4,Kab. Indragiri Hulu,-0.492559,102.2478108
112,4,Kab. Indragiri Hilir,-0.2932742,103.184153
113,4,Kab. Pelalawan,0.1585512,102.4356489
114,4,Kab. S I A K,0.828033,101.9048443
115,4,Kab. Kampar,0.320341,101.0613635
116,4,Kab. Rokan Hulu,0.8932599,100.4904995
117,4,Kab. Bengkalis,1.4296575,102.2532815
118,4,Kab. Rokan Hilir,1.88414,100.8053555
119,4,Kab. Kepulauan Meranti,1.0562111,102.68304
120,4,Kota Pekanbaru,0.5137912,101.441176
121,4,Kota D U M A I,1.6675758,101.411459
122,5,Kab. Kerinci,-2.0612335,101.4829539
123,5,Kab. Merangin,-2.20706,102.086175
124,5,Kab. Sarolangun,-2.2592555,102.729826
125,5,Kab. Batang Hari,-1.853121,102.988379
126,5,Kab. Muaro Jambi,-1.7049425,103.782604
127,5,Kab. Tanjung Jabung Timur,-1.257671,103.9018501
128,5,Kab. Tanjung Jabung Barat,-1.0939625,103.1101365
129,5,Kab. Tebo,-1.3952375,102.3232096
130,5,Kab. Bungo,-1.5157519,101.9783389
131,5,Kota Jambi,-1.6104362,103.6095285
132,5,Kota Sungai Penuh,-2.0670525,101.4115693
133,6,Kab. Ogan Komering Ulu,-4.1105135,104.0872659
134,6,Kab. Ogan Komering Ilir,-3.3277745,105.368645
135,6,Kab. Muara Enim,-3.6400375,103.778525
136,6,Kab. Lahat,-3.7890333,103.5396504
137,6,Kab. Musi Rawas,-3.175197,103.0678991
138,6,Kab. Musi Banyuasin,-2.4958314,103.830431
139,6,Kab. Banyu Asin,-2.3986905,104.8166695
140,6,Kab. Ogan Komering Ulu Selatan,-4.5677009,103.884625
141,6,Kab. Ogan Komering Ulu Timur,-4.1063355,104.5414369
142,6,Kab. Ogan Ilir,-3.419661,104.5600495
143,6,Kab. Empat Lawang,-3.717045,102.9066479
144,6,Kota Palembang,-2.9549685,104.7629645
145,6,Kota Prabumulih,-3.4164714,104.2452666
146,6,Kota Pagar Alam,-4.0435652,103.2194006
147,6,Kota Lubuklinggau,-3.2996427,102.8779769
148,7,Kab. Bengkulu Selatan,-4.358941,103.0444379
149,7,Kab. Rejang Lebong,-3.4381609,102.6831009
150,7,Kab. Bengkulu Utara,-3.1852395,101.9984294
151,7,Kab. Kaur,-4.589298,103.4167585
152,7,Kab. Seluma,-4.0803225,102.6363259
153,7,Kab. Mukomuko,-2.7308445,101.4443209
154,7,Kab. Lebong,-3.0525784,102.2137735
155,7,Kab. Kepahiang,-3.635531,102.5698814
156,7,Kab. Bengkulu Tengah,-3.677797,102.4099105
157,7,Kota Bengkulu,-3.8253459,102.3045787
158,8,Kab. Lampung Barat,-5.3578855,104.116373
159,8,Kab. Tanggamus,-5.4763775,104.704666
160,8,Kab. Lampung Selatan,-5.669861,105.468599
161,8,Kab. Lampung Timur,-5.1205159,105.5893951
162,8,Kab. Lampung Tengah,-4.8741316,105.18228
163,8,Kab. Lampung Utara,-4.8083889,104.8107841
164,8,Kab. Way Kanan,-4.5732975,104.6774294
165,8,Kab. Tulangbawang,-4.325362,104.6358635
166,8,Kab. Pesawaran,-5.4821254,105.1385304
167,8,Kab. Pringsewu,-5.355493,104.9594651
168,8,Kab. Mesuji,-3.882974,105.491813
169,8,Kab. Tulang Bawang Barat,-5.431581,105.261891
170,8,Kab. Pesisir Barat,-5.253215,104.076902
171,8,Kota Bandar Lampung,-5.4285795,105.2707381
172,8,Kota Metro,-5.1210842,105.3070667
173,9,Kab. Bangka,-1.93427,105.9418504
174,9,Kab. Belitung,-2.9295255,107.551537
175,9,Kab. Bangka Barat,-1.8404802,105.4471295
176,9,Kab. Bangka Tengah,-2.4328315,106.298731
177,9,Kab. Bangka Selatan,-2.8071445,106.5094482
178,9,Kab. Belitung Timur,-2.9547655,108.2993321
179,9,Kota Pangkal Pinang,-2.1159948,106.1205269
180,10,Kab. Karimun,0.82109,103.6293579
181,10,Kab. Bintan,0.9632714,104.5704068
182,10,Kab. Natuna,3.9987617,108.25
183,10,Kab. Lingga,-0.1789114,104.509726
184,10,Kab. Kepulauan Anambas,3.097407,105.686869
185,10,Kota B A T A M,0.837166,104.0531311
186,10,Kota Tanjung Pinang,0.917062,104.4845974
187,11,Kab. Kepulauan Seribu,-5.7985266,106.5071982
188,11,Kota Jakarta Selatan,-6.2841065,106.8020795
189,11,Kota Jakarta Timur,-6.2611481,106.9050201
190,11,Kota Jakarta Pusat,-6.182313,106.8364646
191,11,Kota Jakarta Barat,-6.1601686,106.7572595
192,11,Kota Jakarta Utara,-6.1358859,106.8419005
193,12,Kab. Bogor,-6.5453636,106.8140985
194,12,Kab. Sukabumi,-6.849407,106.955305
195,12,Kab. Cianjur,-6.814476,107.1246835
196,12,Kab. Bandung,-7.0634725,107.5911715
197,12,Kab. Garut,-7.3433276,107.7781535
198,12,Kab. Tasikmalaya,-7.427867,108.1734586
199,12,Kab. Ciamis,-7.3113045,108.4466244
200,12,Kab. Kuningan,-6.979313,108.4934425
201,12,Kab. Cirebon,-6.7613035,108.5816461
202,12,Kab. Majalengka,-6.850966,108.229809
203,12,Kab. Sumedang,-6.8101905,107.9804
204,12,Kab. Indramayu,-6.4517829,108.194768
205,12,Kab. Subang,-6.4952915,107.7345795
206,12,Kab. Purwakarta,-6.5923975,107.4112739
207,12,Kab. Karawang,-6.2648065,107.3637299
208,12,Kab. Bekasi,-6.2845395,106.973377
209,12,Kab. Bandung Barat,-6.9052641,107.4542339
210,12,Kab. Pangandaran,-7.6833329,108.65
211,12,Kota Bogor,-6.5951935,106.791892
212,12,Kota Sukabumi,-6.9370139,106.91731
213,12,Kota Bandung,-6.9034494,107.6431576
214,12,Kota Cirebon,-6.7428626,108.554039
215,12,Kota Bekasi,-6.2845395,106.973377
216,12,Kota Depok,-6.3878485,106.8177975
217,12,Kota Cimahi,-6.8862575,107.5411216
218,12,Kota Tasikmalaya,-7.359982,108.232753
219,12,Kota Banjar,-7.3724826,108.5362043
220,13,Kab. Cilacap,-7.7065141,109.0324948
221,13,Kab. Banyumas,-7.4550015,109.168573
222,13,Kab. Purbalingga,-7.3273401,109.4040946
223,13,Kab. Banjarnegara,-7.415225,109.711745
224,13,Kab. Kebumen,-7.643941,109.609325
225,13,Kab. Purworejo,-7.7262614,110.0313545
226,13,Kab. Wonosobo,-7.3997966,109.90568
227,13,Kab. Magelang,-7.4730538,110.2175245
228,13,Kab. Boyolali,-7.5179649,110.591637
229,13,Kab. Klaten,-7.7171062,110.6537602
230,13,Kab. Sukoharjo,-7.6828475,110.831434
231,13,Kab. Wonogiri,-7.961908,111.0367375
232,13,Kab. Karanganyar,-7.6041988,110.974045
233,13,Kab. Sragen,-7.3922765,110.9621404
234,13,Kab. Grobogan,-7.02362,110.918685
235,13,Kab. Blora,-6.9610895,111.436945
236,13,Kab. Rembang,-6.718238,111.3692401
237,13,Kab. Pati,-6.752494,111.0491776
238,13,Kab. Kudus,-6.79765,110.8679786
239,13,Kab. Jepara,-6.5800224,110.6757625
240,13,Kab. Demak,-6.923049,110.6479535
241,13,Kab. Semarang,-7.2877925,110.456609
242,13,Kab. Temanggung,-7.3183031,110.1815996
243,13,Kab. Kendal,-7.0204065,110.1394004
244,13,Kab. Batang,-7.0320014,109.8633845
245,13,Kab. Pekalongan,-7.0418805,109.6410705
246,13,Kab. Pemalang,-6.9190685,109.3735976
247,13,Kab. Tegal,-6.8697654,109.1182765
248,13,Kab. Brebes,-6.8651731,109.0439415
249,13,Kota Magelang,-7.4730539,110.2175245
250,13,Kota Surakarta,-7.559209,110.8188121
251,13,Kota Salatiga,-7.3262536,110.4970854
252,13,Kota Semarang,-7.0247754,110.4188483
253,13,Kota Pekalongan,-6.895942,109.6745035
254,13,Kota Tegal,-6.8705707,109.1172396
255,14,Kab. Kulon Progo,-7.812494,110.144139
256,14,Kab. Bantul,-7.8981899,110.3627566
257,14,Kab. Gunung Kidul,-7.993185,110.5819344
258,14,Kab. Sleman,-7.7161648,110.335403
259,14,Kota Yogyakarta,-7.8032504,110.374845
260,15,Kab. Pacitan,-8.1854449,111.108551
261,15,Kab. Ponorogo,-7.8681204,111.4731673
262,15,Kab. Trenggalek,-8.0849483,111.7450533
263,15,Kab. Tulungagung,-8.0942842,111.958827
264,15,Kab. Blitar,-8.1312895,112.2172665
265,15,Kab. Kediri,-7.8015631,112.109619
266,15,Kab. Malang,-8.112544,112.6227905
267,15,Kab. Lumajang,-8.1240426,113.1394969
268,15,Kab. Jember,-8.1768099,113.6909704
269,15,Kab. Banyuwangi,-8.3326134,114.2215065
270,15,Kab. Bondowoso,-7.945285,113.936027
271,15,Kab. Situbondo,-7.72034,113.9858475
272,15,Kab. Probolinggo,-7.851948,113.2856585
273,15,Kab. Pasuruan,-7.7505644,112.837377
274,15,Kab. Sidoarjo,-7.4510445,112.7117683
275,15,Kab. Mojokerto,-7.54112,112.50166
276,15,Kab. Jombang,-7.5614789,112.2592315
277,15,Kab. Nganjuk,-7.5952491,111.9040227
278,15,Kab. Madiun,-7.6118184,111.6486774
279,15,Kab. Magetan,-7.6455215,111.334454
280,15,Kab. Ngawi,-7.419105,111.4434499
281,15,Kab. Bojonegoro,-7.419105,111.4434499
282,15,Kab. Tuban,-6.8921205,112.0403455
283,15,Kab. Lamongan,-7.1228674,112.3941885
284,15,Kab. Gresik,-7.1649214,112.6529375
285,15,Kab. Bangkalan,-7.046227,112.909895
286,15,Kab. Sampang,-7.1681831,113.249516
287,15,Kab. Pamekasan,-7.1548015,113.4729835
288,15,Kab. Sumenep,-7.042153,114.1866795
289,15,Kota Kediri,-7.8015631,112.109619
290,15,Kota Blitar,-8.103902,112.1435275
291,15,Kota Malang,-7.9786454,112.631783
292,15,Kota Probolinggo,-7.7723119,113.2014757
293,15,Kota Pasuruan,-7.6514352,112.9050948
294,15,Kota Mojokerto,-7.471489,112.4392309
295,15,Kota Madiun,-7.6300619,111.5280514
296,15,Kota Surabaya,-7.2756195,112.7116844
297,15,Kota Batu,-7.8806987,112.5223041
298,16,Kab. Pandeglang,-6.325275,106.1115081
299,16,Kab. Lebak,-6.643354,106.1945915
300,16,Kab. Tangerang,-6.1818846,106.5325875
301,16,Kab. Serang,-6.1002534,106.1605904
302,16,Kota Tangerang,-6.1766876,106.650034
303,16,Kota Cilegon,-6.0497075,106.043324
304,16,Kota Serang,-6.1106535,106.1590199
305,16,Kota Tangerang Selatan,-6.295503,106.7083125
306,17,Kab. Jembrana,-8.3145469,114.5889811
307,17,Kab. Tabanan,-8.4392285,115.0660515
308,17,Kab. Badung,-8.5455855,115.1676201
309,17,Kab. Gianyar,-8.512286,115.3366962
310,17,Kab. Klungkung,-8.7413355,115.528733
311,17,Kab. Bangli,-8.4123504,115.3622595
312,17,Kab. Karang Asem,-8.3586,115.5507596
313,17,Kab. Buleleng,-8.3586,115.5507596
314,17,Kota Denpasar,-8.6726833,115.2242733
315,18,Kab. Lombok Barat,-8.658366,116.080009
316,18,Kab. Lombok Tengah,-8.6822985,116.2690695
317,18,Kab. Lombok Timur,-8.5915984,116.56594
318,18,Kab. Sumbawa,-8.6167469,117.585475
319,18,Kab. Dompu,-8.4937125,118.1166865
320,18,Kab. Bima,-8.4833659,118.5504525
321,18,Kab. Sumbawa Barat,-8.8002261,116.9029435
322,18,Kab. Lombok Utara,-8.34543,116.2610518
323,18,Kota Mataram,-8.5877038,116.1166001
324,18,Kota Bima,-8.462889,118.7447156
325,19,Kab. Sumba Barat,-9.585349,119.343298
326,19,Kab. Sumba Timur,-9.805338,120.2601125
327,19,Kab. Kupang,-9.8124595,123.7486966
328,19,Kab. Timor Tengah Selatan,-9.8230724,124.4374374
329,19,Kab. Timor Tengah Utara,-9.340553,124.4736826
330,19,Kab. Belu,-9.1758655,124.9924854
331,19,Kab. Alor,-8.3334051,124.4751755
332,19,Kab. Lembata,-8.3780389,123.5649621
333,19,Kab. Flores Timur,-8.350315,122.994027
334,19,Kab. Sikka,-8.5759905,122.3069155
335,19,Kab. Ende,-8.6735235,121.7102853
336,19,Kab. Ngada,-8.650088,120.9973199
337,19,Kab. Manggarai,-8.578325,120.3872935
338,19,Kab. Rote Ndao,-10.7193055,123.0422646
339,19,Kab. Manggarai Barat,-8.574164,119.8713535
340,19,Kab. Sumba Tengah,-9.5938025,119.6709764
341,19,Kab. Sumba Barat Daya,-9.544009,119.170324
342,19,Kab. Nagekeo,-9.544009,119.170324
343,19,Kab. Manggarai Timur,-8.5740509,120.6162925
344,19,Kab. Sabu Raijua,-10.530461,121.7644899
345,19,Kota Kupang,-10.174951,123.6147184
346,20,Kab. Sambas,1.3522721,109.3043921
347,20,Kab. Bengkayang,0.846146,109.495651
348,20,Kab. Landak,0.5108791,109.704688
349,20,Kab. Pontianak,-0.02633,109.342504
350,20,Kab. Sanggau,0.119275,110.597298
351,20,Kab. Ketapang,-1.859098,109.971901
352,20,Kab. Sintang,0.063261,111.486205
353,20,Kab. Kapuas Hulu,0.83367,113.001199
354,20,Kab. Sekadau,0.015637,110.888603
355,20,Kab. Melawi,-0.700068,111.666072
356,20,Kab. Kayong Utara,-0.922588,110.044966
357,20,Kab. Kubu Raya,-0.353394,109.473507
358,20,Kota Pontianak,-0.02633,109.342504
359,20,Kota Singkawang,0.90602,108.987205
360,21,Kab. Kotawaringin Barat,-2.506342,111.761466
361,21,Kab. Kotawaringin Timur,-2.122548,112.810551
362,21,Kab. Kapuas,-1.811645,114.334143
363,21,Kab. Barito Selatan,-1.875943,114.809269
364,21,Kab. Barito Utara,-0.958714,115.094045
365,21,Kab. Sukamara,-2.626752,111.236808
366,21,Kab. Lamandau,-1.852638,111.284503
367,21,Kab. Seruyan,-3.012347,112.429146
368,21,Kab. Katingan,-0.975838,112.810551
369,21,Kab. Pulang Pisau,-2.684961,113.953647
370,21,Kab. Gunung Mas,-1.252246,113.57285
371,21,Kab. Barito Timur,-2.0124,115.188916
372,21,Kab. Murung Raya,-0.136217,114.334143
373,21,Kota Palangka Raya,-2.21,113.92
374,22,Kab. Tanah Laut,-3.769405,114.809269
375,22,Kab. Kota Baru,-3.5285955,116.0298535
376,22,Kab. Banjar,-3.2765735,115.054912
377,22,Kab. Barito Kuala,-3.0141449,114.6037455
378,22,Kab. Tapin,-2.8668925,115.154903
379,22,Kab. Hulu Sungai Selatan,-2.7182414,115.232921
380,22,Kab. Hulu Sungai Tengah,-2.611594,115.5251035
381,22,Kab. Hulu Sungai Utara,-2.4250319,115.132208
382,22,Kab. Tabalong,-1.837203,115.4406545
383,22,Kab. Tanah Bumbu,-3.4437636,115.6676005
384,22,Kab. Balangan,-2.2893155,115.5840765
385,22,Kota Banjarmasin,-3.3172214,114.5942126
386,22,Kota Banjar Baru,-3.4593218,114.8002246
387,23,Kab. Paser,-1.689773,116.1125009
388,23,Kab. Kutai Barat,-0.471243,115.8743924
389,23,Kab. Kutai Kartanegara,0.1966221,116.5716885
390,23,Kab. Kutai Timur,0.9305864,117.4987075
391,23,Kab. Berau,1.8052065,117.6001925
392,23,Kab. Penajam Paser Utara,-1.2001755,116.6452646
393,23,Kota Balikpapan,-1.2446981,116.8795
394,23,Kota Samarinda,-0.5014663,117.1323322
395,23,Kota Bontang,0.1184141,117.4747967
396,24,Kab. Malinau,2.582303,115.6859664
397,24,Kab. Bulungan,2.8447239,116.9878605
398,24,Kab. Tana Tidung,3.5493095,117.2620374
399,24,Kab. Nunukan,3.9052315,116.7444814
400,24,Kota Tarakan,3.3551581,117.5778743
401,25,Kab. Bolaang Mongondow,0.7211095,124.0349449
402,25,Kab. Minahasa,1.2411715,124.8137499
403,25,Kab. Kepulauan Sangihe,3.6476465,125.5264105
404,25,Kab. Kepulauan Talaud,4.2834165,126.7925664
405,25,Kab. Minahasa Selatan,1.070976,124.5283609
406,25,Kab. Minahasa Utara,1.5783895,124.9584185
407,25,Kab. Bolaang Mongondow Utara,0.760593,123.4257745
408,25,Kab. Siau Tagulandang Biaro,2.3354505,125.4048194
409,25,Kab. Minahasa Tenggara,0.982509,124.750399
410,25,Kab. Bolaang Mongondow Selatan,0.4544605,123.9792625
411,25,Kab. Bolaang Mongondow Timur,0.711536,124.5170419
412,25,Kota Manado,1.4827769,124.835662
413,25,Kota Bitung,1.466629,125.1806404
414,25,Kota Tomohon,1.3305563,124.836345
415,25,Kota Kotamobagu,0.7350466,124.3169899
416,26,Kab. Banggai Kepulauan,-1.399779,123.147504
417,26,Kab. Banggai,-1.1160909,122.651007
418,26,Kab. Morowali,-2.7706225,122.030723
419,26,Kab. Poso,-1.3949976,120.753772
420,26,Kab. Donggala,-0.3510735,119.8250565
421,26,Kab. Toli-toli,1.0337112,120.8141405
422,26,Kab. Buol,0.994581,121.5338792
423,26,Kab. Parigi Moutong,-0.240258,120.6257281
424,26,Kab. Tojo Una-una,-1.1816257,121.4947879
425,26,Kab. Sigi,-1.4615905,120.0027559
426,26,Kota Palu,-0.8193728,119.8722506
427,27,Kab. Kepulauan Selayar,-6.118587,120.4802495
428,27,Kab. Bulukumba,-5.4841239,120.217275
429,27,Kab. Bantaeng,-5.503575,119.9659645
430,27,Kab. Jeneponto,-5.544701,119.712021
431,27,Kab. Takalar,-5.4111961,119.4184595
432,27,Kab. Gowa,-5.330119,119.6978965
433,27,Kab. Sinjai,-5.2003069,120.1317035
434,27,Kab. Maros,-4.965145,119.7196405
435,27,Kab. Pangkajene Dan Kepulauan,-4.7634134,119.5162885
436,27,Kab. Barru,-5.1931189,119.412755
437,27,Kab. Bone,-4.6800285,120.0771259
438,27,Kab. Soppeng,-4.3185884,119.9011865
439,27,Kab. Wajo,-3.968236,120.1644474
440,27,Kab. Sidenreng Rappang,-3.8080935,119.9978918
441,27,Kab. Pinrang,-3.6487895,119.607684
442,27,Kab. Enrekang,-3.4782314,119.7890776
443,27,Kab. Luwu,-3.1666385,120.1460475
444,27,Kab. Tana Toraja,-3.0753,119.742604
445,27,Kab. Luwu Utara,-2.269045,119.974053
446,27,Kab. Luwu Timur,-5.1550301,119.4159105
447,27,Kab. Toraja Utara,-2.8990815,119.8803455
448,27,Kota Makassar,-5.1227605,119.46127
449,27,Kota Parepare,-4.0127941,119.6381477
450,27,Kota Palopo,-3.0149812,120.1999841
451,28,Kab. Buton,-5.389564,122.7449885
452,28,Kab. Muna,-4.872199,122.5483941
453,28,Kab. Konawe,-3.5129105,122.0421635
454,28,Kab. Kolaka,-4.0438084,121.6657564
455,28,Kab. Konawe Selatan,-4.2511975,122.4093685
456,28,Kab. Bombana,-4.648462,121.8077804
457,28,Kab. Wakatobi,-5.424358,123.674063
458,28,Kab. Kolaka Utara,-3.2631124,121.160607
459,28,Kab. Buton Utara,-4.7575495,123.0207695
460,28,Kab. Konawe Utara,-3.4196045,121.957189
461,28,Kota Kendari,-3.9850497,122.5370449
462,28,Kota Baubau,-5.489688,122.6063884
463,29,Kab. Boalemo,0.6816125,122.3681385
464,29,Kab. Gorontalo,0.698919,122.6626601
465,29,Kab. Pohuwato,0.6665875,121.647892
466,29,Kab. Bone Bolango,0.556234,123.2944371
467,29,Kab. Gorontalo Utara,0.8650476,122.6284595
468,29,Kota Gorontalo,0.5489221,123.0400206
469,30,Kab. Majene,-3.2423271,118.9360231
470,30,Kab. Polewali Mandar,-3.3026449,119.1961135
471,30,Kab. Mamasa,-2.9964105,119.3236704
472,30,Kab. Mamuju,-2.7060739,118.9482495
473,30,Kab. Mamuju Utara,-1.3437139,119.5760856
474,31,Kab. Maluku Tenggara Barat,-7.499401,131.382077
475,31,Kab. Maluku Tenggara,-5.6556815,132.8097965
476,31,Kab. Maluku Tengah,-3.2541375,129.0081705
477,31,Kab. Buru,-3.3447626,126.6907084
478,31,Kab. Kepulauan Aru,-6.178968,134.4170324
479,31,Kab. Seram Bagian Barat,-3.1637165,128.116853
480,31,Kab. Seram Bagian Timur,-3.57447,130.6518145
481,31,Kab. Maluku Barat Daya,-7.8079675,126.2826785
482,31,Kab. Buru Selatan,-3.5087335,126.619563
483,31,Kota Ambon,-3.7047628,128.1847942
484,31,Kota Tual,-5.5463158,132.7197194
485,32,Kab. Halmahera Barat,1.3631035,127.5929885
486,32,Kab. Halmahera Tengah,0.388889,128.374017
487,32,Kab. Kepulauan Sula,-2.1145585,125.907455
488,32,Kab. Halmahera Selatan,-0.7456371,127.8130305
489,32,Kab. Halmahera Utara,1.5595055,127.8348996
490,32,Kab. Halmahera Timur,1.0029075,128.2247209
491,32,Kab. Pulau Morotai,2.3128106,128.4456415
492,32,Kota Ternate,0.833467,127.3444225
493,32,Kota Tidore Kepulauan,0.663004,127.4299959
494,31,Kab. Fakfak,-3.2007173,132.81428
495,31,Kab. Kaimana,-3.5846625,134.029867
496,31,Kab. Teluk Wondama,-2.636358,134.4826865
497,31,Kab. Teluk Bintuni,-2.0870355,133.322403
498,31,Kab. Manokwari,-0.8643675,134.0740985
499,31,Kab. Sorong Selatan,-1.6675474,132.1186083
500,31,Kab. Sorong,-1.0522686,131.392793
501,31,Kab. Raja Ampat,-0.98697,130.785093
502,31,Kab. Tambrauw,-0.7207635,132.477018
503,31,Kab. Maybrat,-1.424197,132.367989
504,31,Kota Sorong,-0.8930885,131.2655549
505,34,Kab. Merauke,-8.528408,140.542275
506,34,Kab. Jayawijaya,-4.1225775,138.977565
507,34,Kab. Jayapura,-3.036266,140.0377394
508,34,Kab. Nabire,-3.2064089,135.496468
509,34,Kab. Kepulauan Yapen,-1.78775,136.2333441
510,34,Kab. Biak Numfor,-1.0127914,136.208342
511,34,Kab. Paniai,-3.7577969,136.5823125
512,34,Kab. Puncak Jaya,-4.0842803,137.1866072
513,34,Kab. Mimika,-4.7167253,136.4944595
514,34,Kab. Boven Digoel,-6.1535839,140.3222164
515,34,Kab. Mappi,-6.247481,139.316628
516,34,Kab. Asmat,-5.5823894,138.5973168
517,34,Kab. Yahukimo,-4.3891721,139.5433275
518,34,Kab. Pegunungan Bintang,-4.4948153,140.4784665
519,34,Kab. Tolikara,-3.488774,138.4034965
520,34,Kab. Sarmi,-2.5326055,139.066544
521,34,Kab. Keerom,-3.3267459,140.6530038
522,34,Kab. Waropen,-2.729533,136.696883
523,34,Kab. Supiori,-0.7536575,135.5821045
524,34,Kab. Mamberamo Raya,-2.4432194,137.9772305
525,34,Kab. Nduga,-4.436155,138.2187995
526,34,Kab. Lanny Jaya,-3.9572731,138.2032004
527,34,Kab. Mamberamo Tengah,-2.3594433,138.2922185
528,34,Kab. Yalimo,-3.785127,139.4353911
529,34,Kab. Puncak,-3.5926999,137.416773
530,34,Kab. Dogiyai,-3.977059,135.9686724
531,34,Kab. Intan Jaya,-3.408609,136.742529
532,34,Kab. Deiyai,-2.5651381,140.6810277
533,34,Kota Jayapura,-2.5651381,140.6810277